{
  "buildFiles": [
    "C:\\Users\\IvanG\\source\\repos\\crusher\\Crusher\\Library\\Bee\\Android\\Prj\\IL2CPP\\Gradle\\unityLibrary\\src\\main\\cpp\\CMakeLists.txt",
    "C:\\Users\\IvanG\\source\\repos\\crusher\\Crusher\\Library\\Bee\\Android\\Prj\\IL2CPP\\Gradle\\unityLibrary\\src\\main\\cpp\\FramePacing\\CMakeLists.txt"
  ],
  "cleanCommandsComponents": [
    [
      "C:\\Program Files\\Unity\\Hub\\Editor\\2023.1.17f1\\Editor\\Data\\PlaybackEngines\\AndroidPlayer\\SDK\\cmake\\3.22.1\\bin\\ninja.exe",
      "-C",
      "C:\\Users\\IvanG\\source\\repos\\crusher\\Crusher\\.utmp\\RelWithDebInfo\\5m1k4l2e\\armeabi-v7a",
      "clean"
    ]
  ],
  "buildTargetsCommandComponents": [
    "C:\\Program Files\\Unity\\Hub\\Editor\\2023.1.17f1\\Editor\\Data\\PlaybackEngines\\AndroidPlayer\\SDK\\cmake\\3.22.1\\bin\\ninja.exe",
    "-C",
    "C:\\Users\\IvanG\\source\\repos\\crusher\\Crusher\\.utmp\\RelWithDebInfo\\5m1k4l2e\\armeabi-v7a",
    "{LIST_OF_TARGETS_TO_BUILD}"
  ],
  "libraries": {
    "swappywrapper::@7e25bd1f32ce224db4e9": {
      "toolchain": "toolchain",
      "abi": "armeabi-v7a",
      "artifactName": "swappywrapper",
      "output": "C:\\Users\\IvanG\\source\\repos\\crusher\\Crusher\\Library\\Bee\\Android\\Prj\\IL2CPP\\Gradle\\unityLibrary\\build\\intermediates\\cxx\\RelWithDebInfo\\5m1k4l2e\\obj\\armeabi-v7a\\libswappywrapper.so",
      "runtimeFiles": []
    }
  },
  "toolchains": {
    "toolchain": {
      "cCompilerExecutable": "C:\\Program Files\\Unity\\Hub\\Editor\\2023.1.17f1\\Editor\\Data\\PlaybackEngines\\AndroidPlayer\\NDK\\toolchains\\llvm\\prebuilt\\windows-x86_64\\bin\\clang.exe",
      "cppCompilerExecutable": "C:\\Program Files\\Unity\\Hub\\Editor\\2023.1.17f1\\Editor\\Data\\PlaybackEngines\\AndroidPlayer\\NDK\\toolchains\\llvm\\prebuilt\\windows-x86_64\\bin\\clang++.exe"
    }
  },
  "cFileExtensions": [],
  "cppFileExtensions": [
    "cpp"
  ]
}