[
{
  "directory": "C:/Users/IvanG/source/repos/crusher/Crusher/.utmp/RelWithDebInfo/5m1k4l2e/armeabi-v7a",
  "command": "C:\\PROGRA~1\\Unity\\Hub\\Editor\\20231~1.17F\\Editor\\Data\\PLAYBA~1\\ANDROI~1\\NDK\\TOOLCH~1\\llvm\\prebuilt\\WINDOW~1\\bin\\CLANG_~1.EXE --target=armv7-none-linux-androideabi31 --sysroot=\"C:/Program Files/Unity/Hub/Editor/2023.1.17f1/Editor/Data/PlaybackEngines/AndroidPlayer/NDK/toolchains/llvm/prebuilt/windows-x86_64/sysroot\" -DEXTERNAL_FRAME_PACING_CODE -Dswappywrapper_EXPORTS -IC:/Users/IvanG/source/repos/crusher/Crusher/Library/Bee/Android/Prj/IL2CPP/Gradle/unityLibrary/src/main/cpp/FramePacing -isystem C:/Users/IvanG/.gradle/caches/transforms-3/121b6b243cedf8bef90d462440e4bf24/transformed/jetified-games-frame-pacing-1.10.0/prefab/modules/swappy_static/include -DANDROID -fdata-sections -ffunction-sections -funwind-tables -fstack-protector-strong -no-canonical-prefixes -D_FORTIFY_SOURCE=2 -march=armv7-a -mthumb -Wformat -Werror=format-security -fexceptions -frtti -stdlib=libc++ -Wall -Wextra -pedantic -Werror -O2 -g -DNDEBUG -fPIC -o FramePacing\\CMakeFiles\\swappywrapper.dir\\UnitySwappyWrapper.cpp.o -c C:\\Users\\IvanG\\source\\repos\\crusher\\Crusher\\Library\\Bee\\Android\\Prj\\IL2CPP\\Gradle\\unityLibrary\\src\\main\\cpp\\FramePacing\\UnitySwappyWrapper.cpp",
  "file": "C:\\Users\\IvanG\\source\\repos\\crusher\\Crusher\\Library\\Bee\\Android\\Prj\\IL2CPP\\Gradle\\unityLibrary\\src\\main\\cpp\\FramePacing\\UnitySwappyWrapper.cpp"
}
]