{
  "enabled": true,
  "prefabPath": "C:\\Users\\IvanG\\.gradle\\caches\\modules-2\\files-2.1\\com.google.prefab\\cli\\2.0.0\\f2702b5ca13df54e3ca92f29d6b403fb6285d8df\\cli-2.0.0-all.jar",
  "packages": [
    "C:\\Users\\IvanG\\.gradle\\caches\\transforms-3\\121b6b243cedf8bef90d462440e4bf24\\transformed\\jetified-games-frame-pacing-1.10.0\\prefab"
  ]
}